﻿{
    "dependencies": {
        "HtmlAgilityPack": "1.4.9.5",
        "Microsoft.AspNetCore.Mvc": "1.0.0",
        "Microsoft.AspNetCore.Server.IISIntegration": "1.0.0",
        "Microsoft.AspNetCore.Server.Kestrel": "1.0.0",
        "Microsoft.Extensions.Configuration.EnvironmentVariables": "1.0.0",
        "Microsoft.Extensions.Configuration.FileExtensions": "1.0.0",
        "Microsoft.Extensions.Configuration.Json": "1.0.0",
        "Microsoft.Extensions.Logging": "1.0.0",
        "Microsoft.Extensions.Logging.Console": "1.0.0",
        "Microsoft.Extensions.Logging.Debug": "1.0.0",
        "Microsoft.Extensions.Options.ConfigurationExtensions": "1.0.0",
        "Swashbuckle": "6.0.0-beta901"
    },

  "tools": {
    "Microsoft.AspNetCore.Server.IISIntegration.Tools": "1.0.0-preview2-final"
  },

  "frameworks": {
    "net46": {
        //"buildOptions": { "platform": "x86" }
    }
  },

  "buildOptions": {
    "emitEntryPoint": true,
    "preserveCompilationContext": true,
    "xmlDoc": true
  },

  "publishOptions": {
    "include": [
      "wwwroot",
      "Views",
      "Areas/**/Views",
      "appsettings.json",
      "web.config"
    ]
  },

  "scripts": {
    "postpublish": [ "dotnet publish-iis --publish-folder %publish:OutputPath% --framework %publish:FullTargetFramework%" ]
  }
}
